{
  "applications": ["hobiHaritasi"],
  "changelogDate": "20240210181521",
  "dto": "mapstruct",
  "embedded": false,
  "entityTableName": "davet",
  "fields": [
    {
      "fieldName": "davetMesaji",
      "fieldType": "String",
      "fieldValidateRules": ["required"]
    },
    {
      "fieldName": "durum",
      "fieldType": "String",
      "fieldValidateRules": ["required"]
    },
    {
      "fieldName": "olusturulmaTarihi",
      "fieldType": "Instant",
      "fieldValidateRules": ["required"]
    },
    {
      "fieldName": "davetTarihi",
      "fieldType": "Instant",
      "fieldValidateRules": ["required"]
    },
    {
      "fieldName": "kabulEdildiMi",
      "fieldType": "Boolean"
    }
  ],
  "fluentMethods": true,
  "jpaMetamodelFiltering": true,
  "name": "Davet",
  "pagination": "pagination",
  "readOnly": false,
  "relationships": [
    {
      "otherEntityField": "ad",
      "otherEntityName": "kullanici",
      "relationshipName": "gonderen",
      "relationshipType": "many-to-one"
    }
  ],
  "service": "serviceImpl"
}
