{
  "applications": ["hobiHaritasi"],
  "changelogDate": "20240210182021",
  "dto": "mapstruct",
  "embedded": false,
  "entityTableName": "grup_etkinligi",
  "fields": [
    {
      "fieldName": "etkinlikAdi",
      "fieldType": "String",
      "fieldValidateRules": ["required"]
    },
    {
      "fieldName": "aciklama",
      "fieldType": "String",
      "fieldValidateRules": ["required"]
    },
    {
      "fieldName": "tarih",
      "fieldType": "Instant",
      "fieldValidateRules": ["required"]
    },
    {
      "fieldName": "konum",
      "fieldType": "String",
      "fieldValidateRules": ["required"]
    },
    {
      "fieldName": "groupId",
      "fieldType": "Long",
      "fieldValidateRules": ["required"]
    }
  ],
  "fluentMethods": true,
  "jpaMetamodelFiltering": true,
  "name": "GrupEtkinligi",
  "pagination": "pagination",
  "readOnly": false,
  "relationships": [
    {
      "otherEntityField": "grupAdi",
      "otherEntityName": "grup",
      "relationshipName": "grup",
      "relationshipType": "many-to-one"
    }
  ],
  "service": "serviceImpl"
}
